%YAML 1.1
%TAG !u! tag:unity3d.com,2011:
--- !u!74 &7400000
AnimationClip:
  m_ObjectHideFlags: 0
  m_PrefabParentObject: {fileID: 0}
  m_PrefabInternal: {fileID: 0}
  m_Name: jellyButtonReplayOnPauseTrue
  serializedVersion: 4
  m_AnimationType: 2
  m_Compressed: 0
  m_UseHighQualityCurve: 1
  m_RotationCurves:
  - curve:
      serializedVersion: 2
      m_Curve:
      - time: 0
        value: {x: 0, y: 0, z: 0, w: 1}
        inSlope: {x: 0, y: 0, z: 12.4747105, w: -1.3111459}
        outSlope: {x: 0, y: 0, z: 12.4747105, w: -1.3111459}
        tangentMode: 0
      - time: .0166666675
        value: {x: 0, y: 0, z: .207911849, w: .978147566}
        inSlope: {x: 0, y: 0, z: 12.2021074, w: -2.59364057}
        outSlope: {x: 0, y: 0, z: 12.2021074, w: -2.59364057}
        tangentMode: 1065353216
      - time: .0333333351
        value: {x: 0, y: 0, z: .40673694, w: .91354531}
        inSlope: {x: 0, y: 0, z: 11.3962116, w: -5.07392359}
        outSlope: {x: 0, y: 0, z: 11.3962116, w: -5.07392359}
        tangentMode: 0
      - time: .0500000045
        value: {x: 0, y: 0, z: .587785602, w: .809016764}
        inSlope: {x: 0, y: 0, z: 10.092248, w: -7.33245468}
        outSlope: {x: 0, y: 0, z: 10.092248, w: -7.33245468}
        tangentMode: 0
      - time: .0666666701
        value: {x: 0, y: 0, z: .743145227, w: .669130147}
        inSlope: {x: 0, y: 0, z: 8.34720612, w: -9.27052307}
        outSlope: {x: 0, y: 0, z: 8.34720612, w: -9.27052307}
        tangentMode: 0
      - time: .0833333358
        value: {x: 0, y: 0, z: .866025805, w: .499999344}
        inSlope: {x: 0, y: 0, z: 6.23734665, w: -10.8034201}
        outSlope: {x: 0, y: 0, z: 6.23734665, w: -10.8034201}
        tangentMode: 0
      - time: .100000001
        value: {x: 0, y: 0, z: .951056778, w: .309016168}
        inSlope: {x: 0, y: 0, z: 3.85488701, w: -11.8641605}
        outSlope: {x: 0, y: 0, z: 3.85488701, w: -11.8641605}
        tangentMode: 0
      - time: .116666667
        value: {x: 0, y: 0, z: .994522035, w: .104527354}
        inSlope: {x: 0, y: 0, z: 1.30395067, w: -12.4063702}
        outSlope: {x: 0, y: 0, z: 1.30395067, w: -12.4063702}
        tangentMode: 0
      - time: .13333334
        value: {x: 0, y: 0, z: .994521797, w: -.104529575}
        inSlope: {x: 0, y: 0, z: -1.30397749, w: -12.4063635}
        outSlope: {x: 0, y: 0, z: -1.30397749, w: -12.4063635}
        tangentMode: 0
      - time: .150000006
        value: {x: 0, y: 0, z: .951056123, w: -.309018165}
        inSlope: {x: 0, y: 0, z: -3.85491037, w: -11.8641453}
        outSlope: {x: 0, y: 0, z: -3.85491037, w: -11.8641453}
        tangentMode: 0
      - time: .166666672
        value: {x: 0, y: 0, z: .866024792, w: -.500001073}
        inSlope: {x: 0, y: 0, z: -6.23737001, w: -10.8034058}
        outSlope: {x: 0, y: 0, z: -6.23737001, w: -10.8034058}
        tangentMode: 0
      - time: .183333337
        value: {x: 0, y: 0, z: .743143797, w: -.669131696}
        inSlope: {x: 0, y: 0, z: -8.34722328, w: -9.27050495}
        outSlope: {x: 0, y: 0, z: -8.34722328, w: -9.27050495}
        tangentMode: 0
      - time: .200000003
        value: {x: 0, y: 0, z: .587784052, w: -.809017897}
        inSlope: {x: 0, y: 0, z: -10.0922565, w: -7.33243179}
        outSlope: {x: 0, y: 0, z: -10.0922565, w: -7.33243179}
        tangentMode: 0
      - time: .216666669
        value: {x: 0, y: 0, z: .406735271, w: -.913546085}
        inSlope: {x: 0, y: 0, z: -11.3962297, w: -5.07390499}
        outSlope: {x: 0, y: 0, z: -11.3962297, w: -5.07390499}
        tangentMode: 0
      - time: .233333334
        value: {x: 0, y: 0, z: .207909748, w: -.978148043}
        inSlope: {x: 0, y: 0, z: -12.2021189, w: -2.59361768}
        outSlope: {x: 0, y: 0, z: -12.2021189, w: -2.59361768}
        tangentMode: 0
      - time: .25
        value: {x: 0, y: 0, z: -1.99477131e-06, w: -1}
        inSlope: {x: 0, y: 0, z: -12.4747038, w: 2.62260437e-05}
        outSlope: {x: 0, y: 0, z: -12.4747038, w: 2.62260437e-05}
        tangentMode: 0
      - time: .266666681
        value: {x: 0, y: 0, z: -.207913876, w: -.978147149}
        inSlope: {x: 0, y: 0, z: -12.2020969, w: 2.59366345}
        outSlope: {x: 0, y: 0, z: -12.2020969, w: 2.59366345}
        tangentMode: 0
      - time: .283333361
        value: {x: 0, y: 0, z: -.406738907, w: -.913544476}
        inSlope: {x: 0, y: 0, z: -11.3961983, w: 5.07394838}
        outSlope: {x: 0, y: 0, z: -11.3961983, w: 5.07394838}
        tangentMode: 1065353215
      - time: .300000042
        value: {x: 0, y: 0, z: -.587787449, w: -.809015393}
        inSlope: {x: 0, y: 0, z: -10.0922298, w: 7.33247566}
        outSlope: {x: 0, y: 0, z: -10.0922298, w: 7.33247566}
        tangentMode: 1065353216
      - time: .316666722
        value: {x: 0, y: 0, z: -.743146837, w: -.669128418}
        inSlope: {x: 0, y: 0, z: -8.34718323, w: 9.27054405}
        outSlope: {x: 0, y: 0, z: -8.34718323, w: 9.27054405}
        tangentMode: 0
      - time: .333333403
        value: {x: 0, y: 0, z: -.866027117, w: -.49999702}
        inSlope: {x: 0, y: 0, z: -6.23731995, w: 10.8034391}
        outSlope: {x: 0, y: 0, z: -6.23731995, w: 10.8034391}
        tangentMode: 0
      - time: .350000083
        value: {x: 0, y: 0, z: -.951057673, w: -.309013486}
        inSlope: {x: 0, y: 0, z: -3.85485315, w: 11.8641787}
        outSlope: {x: 0, y: 0, z: -3.85485315, w: 11.8641787}
        tangentMode: 0
      - time: .366666764
        value: {x: 0, y: 0, z: -.994522333, w: -.104524069}
        inSlope: {x: 0, y: 0, z: -1.30391371, w: 12.4063587}
        outSlope: {x: 0, y: 0, z: -1.30391371, w: 12.4063587}
        tangentMode: 0
      - time: .383333445
        value: {x: 0, y: 0, z: -.994521499, w: .104532152}
        inSlope: {x: 0, y: 0, z: 1.30401385, w: 12.4063482}
        outSlope: {x: 0, y: 0, z: 1.30401385, w: 12.4063482}
        tangentMode: 0
      - time: .400000125
        value: {x: 0, y: 0, z: -.951055169, w: .309021205}
        inSlope: {x: 0, y: 0, z: 3.8549428, w: 11.8641348}
        outSlope: {x: 0, y: 0, z: 3.8549428, w: 11.8641348}
        tangentMode: 0
      - time: .416666806
        value: {x: 0, y: 0, z: -.866023302, w: .500003636}
        inSlope: {x: 0, y: 0, z: 6.23740387, w: 10.8033829}
        outSlope: {x: 0, y: 0, z: 6.23740387, w: 10.8033829}
        tangentMode: 0
      - time: .433333486
        value: {x: 0, y: 0, z: -.743141532, w: .669134259}
        inSlope: {x: 0, y: 0, z: 8.34724808, w: 9.27047539}
        outSlope: {x: 0, y: 0, z: 8.34724808, w: 9.27047539}
        tangentMode: 0
      - time: .450000167
        value: {x: 0, y: 0, z: -.587781489, w: .809019744}
        inSlope: {x: 0, y: 0, z: 10.0922871, w: 7.33239508}
        outSlope: {x: 0, y: 0, z: 10.0922871, w: 7.33239508}
        tangentMode: 0
      - time: .466666847
        value: {x: 0, y: 0, z: -.406731695, w: .913547635}
        inSlope: {x: 0, y: 0, z: 11.3962364, w: 5.07386446}
        outSlope: {x: 0, y: 0, z: 11.3962364, w: 5.07386446}
        tangentMode: 0
      - time: .483333528
        value: {x: 0, y: 0, z: -.207906634, w: .978148699}
        inSlope: {x: 0, y: 0, z: 12.2021523, w: 2.59357691}
        outSlope: {x: 0, y: 0, z: 12.2021523, w: 2.59357691}
        tangentMode: 0
      - time: .5
        value: {x: 0, y: 0, z: 4.46637978e-06, w: 1}
        inSlope: {x: 0, y: 0, z: 12.4748116, w: 1.31109333}
        outSlope: {x: 0, y: 0, z: 12.4748116, w: 1.31109333}
        tangentMode: 0
      m_PreInfinity: 2
      m_PostInfinity: 2
    path: 
  m_CompressedRotationCurves: []
  m_PositionCurves:
  - curve:
      serializedVersion: 2
      m_Curve:
      - time: 0
        value: {x: 0, y: 0, z: 0}
        inSlope: {x: .430000007, y: -4.30000019, z: 0}
        outSlope: {x: .430000007, y: -4.30000019, z: 0}
        tangentMode: 1632661071
      - time: .5
        value: {x: .215000004, y: -2.1500001, z: 0}
        inSlope: {x: .430000007, y: -4.30000019, z: 0}
        outSlope: {x: .430000007, y: -4.30000019, z: 0}
        tangentMode: 0
      m_PreInfinity: 2
      m_PostInfinity: 2
    path: 
  m_ScaleCurves:
  - curve:
      serializedVersion: 2
      m_Curve:
      - time: 0
        value: {x: 0, y: 0, z: 0}
        inSlope: {x: 2, y: 2, z: 2}
        outSlope: {x: 2, y: 2, z: 2}
        tangentMode: 1632661071
      - time: .5
        value: {x: 1, y: 1, z: 1}
        inSlope: {x: 2, y: 2, z: 2}
        outSlope: {x: 2, y: 2, z: 2}
        tangentMode: 0
      m_PreInfinity: 2
      m_PostInfinity: 2
    path: 
  m_FloatCurves: []
  m_PPtrCurves: []
  m_SampleRate: 60
  m_WrapMode: 0
  m_Bounds:
    m_Center: {x: 0, y: 0, z: 0}
    m_Extent: {x: 0, y: 0, z: 0}
  m_AnimationClipSettings:
    serializedVersion: 2
    m_StartTime: 0
    m_StopTime: .5
    m_OrientationOffsetY: 0
    m_Level: 0
    m_CycleOffset: 0
    m_LoopTime: 1
    m_LoopBlend: 0
    m_LoopBlendOrientation: 0
    m_LoopBlendPositionY: 0
    m_LoopBlendPositionXZ: 0
    m_KeepOriginalOrientation: 0
    m_KeepOriginalPositionY: 1
    m_KeepOriginalPositionXZ: 0
    m_HeightFromFeet: 0
    m_Mirror: 0
  m_EditorCurves:
  - curve:
      serializedVersion: 2
      m_Curve:
      - time: 0
        value: 0
        inSlope: .430000007
        outSlope: .430000007
        tangentMode: 10
      - time: .5
        value: .215000004
        inSlope: .430000007
        outSlope: .430000007
        tangentMode: 10
      m_PreInfinity: 2
      m_PostInfinity: 2
    attribute: m_LocalPosition.x
    path: 
    classID: 4
    script: {fileID: 0}
  - curve:
      serializedVersion: 2
      m_Curve:
      - time: 0
        value: 0
        inSlope: -4.30000019
        outSlope: -4.30000019
        tangentMode: 10
      - time: .5
        value: -2.1500001
        inSlope: -4.30000019
        outSlope: -4.30000019
        tangentMode: 10
      m_PreInfinity: 2
      m_PostInfinity: 2
    attribute: m_LocalPosition.y
    path: 
    classID: 4
    script: {fileID: 0}
  - curve:
      serializedVersion: 2
      m_Curve:
      - time: 0
        value: 0
        inSlope: 0
        outSlope: 0
        tangentMode: 10
      - time: .5
        value: 0
        inSlope: 0
        outSlope: 0
        tangentMode: 10
      m_PreInfinity: 2
      m_PostInfinity: 2
    attribute: m_LocalPosition.z
    path: 
    classID: 4
    script: {fileID: 0}
  - curve:
      serializedVersion: 2
      m_Curve:
      - time: 0
        value: 0
        inSlope: 2
        outSlope: 2
        tangentMode: 10
      - time: .5
        value: 1
        inSlope: 2
        outSlope: 2
        tangentMode: 10
      m_PreInfinity: 2
      m_PostInfinity: 2
    attribute: m_LocalScale.z
    path: 
    classID: 4
    script: {fileID: 0}
  - curve:
      serializedVersion: 2
      m_Curve:
      - time: 0
        value: 0
        inSlope: 2
        outSlope: 2
        tangentMode: 10
      - time: .5
        value: 1
        inSlope: 2
        outSlope: 2
        tangentMode: 10
      m_PreInfinity: 2
      m_PostInfinity: 2
    attribute: m_LocalScale.y
    path: 
    classID: 4
    script: {fileID: 0}
  - curve:
      serializedVersion: 2
      m_Curve:
      - time: 0
        value: 0
        inSlope: 2
        outSlope: 2
        tangentMode: 10
      - time: .5
        value: 1
        inSlope: 2
        outSlope: 2
        tangentMode: 10
      m_PreInfinity: 2
      m_PostInfinity: 2
    attribute: m_LocalScale.x
    path: 
    classID: 4
    script: {fileID: 0}
  - curve:
      serializedVersion: 2
      m_Curve:
      - time: 0
        value: 0
        inSlope: 0
        outSlope: 0
        tangentMode: 0
      - time: .0166666675
        value: 0
        inSlope: 0
        outSlope: 0
        tangentMode: 0
      - time: .0333333351
        value: 0
        inSlope: 0
        outSlope: 0
        tangentMode: 0
      - time: .0500000045
        value: 0
        inSlope: 0
        outSlope: 0
        tangentMode: 0
      - time: .0666666701
        value: 0
        inSlope: 0
        outSlope: 0
        tangentMode: 0
      - time: .0833333358
        value: 0
        inSlope: 0
        outSlope: 0
        tangentMode: 0
      - time: .100000001
        value: 0
        inSlope: 0
        outSlope: 0
        tangentMode: 0
      - time: .116666667
        value: 0
        inSlope: 0
        outSlope: 0
        tangentMode: 0
      - time: .13333334
        value: 0
        inSlope: 0
        outSlope: 0
        tangentMode: 0
      - time: .150000006
        value: 0
        inSlope: 0
        outSlope: 0
        tangentMode: 0
      - time: .166666672
        value: 0
        inSlope: 0
        outSlope: 0
        tangentMode: 0
      - time: .183333337
        value: 0
        inSlope: 0
        outSlope: 0
        tangentMode: 0
      - time: .200000003
        value: 0
        inSlope: 0
        outSlope: 0
        tangentMode: 0
      - time: .216666669
        value: 0
        inSlope: 0
        outSlope: 0
        tangentMode: 0
      - time: .233333334
        value: 0
        inSlope: 0
        outSlope: 0
        tangentMode: 0
      - time: .25
        value: 0
        inSlope: 0
        outSlope: 0
        tangentMode: 0
      - time: .266666681
        value: 0
        inSlope: 0
        outSlope: 0
        tangentMode: 0
      - time: .283333361
        value: 0
        inSlope: 0
        outSlope: 0
        tangentMode: 0
      - time: .300000042
        value: 0
        inSlope: 0
        outSlope: 0
        tangentMode: 0
      - time: .316666722
        value: 0
        inSlope: 0
        outSlope: 0
        tangentMode: 0
      - time: .333333403
        value: 0
        inSlope: 0
        outSlope: 0
        tangentMode: 0
      - time: .350000083
        value: 0
        inSlope: 0
        outSlope: 0
        tangentMode: 0
      - time: .366666764
        value: 0
        inSlope: 0
        outSlope: 0
        tangentMode: 0
      - time: .383333445
        value: 0
        inSlope: 0
        outSlope: 0
        tangentMode: 0
      - time: .400000125
        value: 0
        inSlope: 0
        outSlope: 0
        tangentMode: 0
      - time: .416666806
        value: 0
        inSlope: 0
        outSlope: 0
        tangentMode: 0
      - time: .433333486
        value: 0
        inSlope: 0
        outSlope: 0
        tangentMode: 0
      - time: .450000167
        value: 0
        inSlope: 0
        outSlope: 0
        tangentMode: 0
      - time: .466666847
        value: 0
        inSlope: 0
        outSlope: 0
        tangentMode: 0
      - time: .483333528
        value: 0
        inSlope: 0
        outSlope: 0
        tangentMode: 0
      - time: .5
        value: 0
        inSlope: 0
        outSlope: 0
        tangentMode: 0
      m_PreInfinity: 2
      m_PostInfinity: 2
    attribute: m_LocalRotation.x
    path: 
    classID: 4
    script: {fileID: 0}
  - curve:
      serializedVersion: 2
      m_Curve:
      - time: 0
        value: 0
        inSlope: 0
        outSlope: 0
        tangentMode: 0
      - time: .0166666675
        value: 0
        inSlope: 0
        outSlope: 0
        tangentMode: 0
      - time: .0333333351
        value: 0
        inSlope: 0
        outSlope: 0
        tangentMode: 0
      - time: .0500000045
        value: 0
        inSlope: 0
        outSlope: 0
        tangentMode: 0
      - time: .0666666701
        value: 0
        inSlope: 0
        outSlope: 0
        tangentMode: 0
      - time: .0833333358
        value: 0
        inSlope: 0
        outSlope: 0
        tangentMode: 0
      - time: .100000001
        value: 0
        inSlope: 0
        outSlope: 0
        tangentMode: 0
      - time: .116666667
        value: 0
        inSlope: 0
        outSlope: 0
        tangentMode: 0
      - time: .13333334
        value: 0
        inSlope: 0
        outSlope: 0
        tangentMode: 0
      - time: .150000006
        value: 0
        inSlope: 0
        outSlope: 0
        tangentMode: 0
      - time: .166666672
        value: 0
        inSlope: 0
        outSlope: 0
        tangentMode: 0
      - time: .183333337
        value: 0
        inSlope: 0
        outSlope: 0
        tangentMode: 0
      - time: .200000003
        value: 0
        inSlope: 0
        outSlope: 0
        tangentMode: 0
      - time: .216666669
        value: 0
        inSlope: 0
        outSlope: 0
        tangentMode: 0
      - time: .233333334
        value: 0
        inSlope: 0
        outSlope: 0
        tangentMode: 0
      - time: .25
        value: 0
        inSlope: 0
        outSlope: 0
        tangentMode: 0
      - time: .266666681
        value: 0
        inSlope: 0
        outSlope: 0
        tangentMode: 0
      - time: .283333361
        value: 0
        inSlope: 0
        outSlope: 0
        tangentMode: 0
      - time: .300000042
        value: 0
        inSlope: 0
        outSlope: 0
        tangentMode: 0
      - time: .316666722
        value: 0
        inSlope: 0
        outSlope: 0
        tangentMode: 0
      - time: .333333403
        value: 0
        inSlope: 0
        outSlope: 0
        tangentMode: 0
      - time: .350000083
        value: 0
        inSlope: 0
        outSlope: 0
        tangentMode: 0
      - time: .366666764
        value: 0
        inSlope: 0
        outSlope: 0
        tangentMode: 0
      - time: .383333445
        value: 0
        inSlope: 0
        outSlope: 0
        tangentMode: 0
      - time: .400000125
        value: 0
        inSlope: 0
        outSlope: 0
        tangentMode: 0
      - time: .416666806
        value: 0
        inSlope: 0
        outSlope: 0
        tangentMode: 0
      - time: .433333486
        value: 0
        inSlope: 0
        outSlope: 0
        tangentMode: 0
      - time: .450000167
        value: 0
        inSlope: 0
        outSlope: 0
        tangentMode: 0
      - time: .466666847
        value: 0
        inSlope: 0
        outSlope: 0
        tangentMode: 0
      - time: .483333528
        value: 0
        inSlope: 0
        outSlope: 0
        tangentMode: 0
      - time: .5
        value: 0
        inSlope: 0
        outSlope: 0
        tangentMode: 0
      m_PreInfinity: 2
      m_PostInfinity: 2
    attribute: m_LocalRotation.y
    path: 
    classID: 4
    script: {fileID: 0}
  - curve:
      serializedVersion: 2
      m_Curve:
      - time: 0
        value: 0
        inSlope: 12.4747105
        outSlope: 12.4747105
        tangentMode: 0
      - time: .0166666675
        value: .207911849
        inSlope: 12.2021074
        outSlope: 12.2021074
        tangentMode: 0
      - time: .0333333351
        value: .40673694
        inSlope: 11.3962116
        outSlope: 11.3962116
        tangentMode: 0
      - time: .0500000045
        value: .587785602
        inSlope: 10.092248
        outSlope: 10.092248
        tangentMode: 0
      - time: .0666666701
        value: .743145227
        inSlope: 8.34720612
        outSlope: 8.34720612
        tangentMode: 0
      - time: .0833333358
        value: .866025805
        inSlope: 6.23734665
        outSlope: 6.23734665
        tangentMode: 0
      - time: .100000001
        value: .951056778
        inSlope: 3.85488701
        outSlope: 3.85488701
        tangentMode: 0
      - time: .116666667
        value: .994522035
        inSlope: 1.30395067
        outSlope: 1.30395067
        tangentMode: 0
      - time: .13333334
        value: .994521797
        inSlope: -1.30397749
        outSlope: -1.30397749
        tangentMode: 0
      - time: .150000006
        value: .951056123
        inSlope: -3.85491037
        outSlope: -3.85491037
        tangentMode: 0
      - time: .166666672
        value: .866024792
        inSlope: -6.23737001
        outSlope: -6.23737001
        tangentMode: 0
      - time: .183333337
        value: .743143797
        inSlope: -8.34722328
        outSlope: -8.34722328
        tangentMode: 0
      - time: .200000003
        value: .587784052
        inSlope: -10.0922565
        outSlope: -10.0922565
        tangentMode: 0
      - time: .216666669
        value: .406735271
        inSlope: -11.3962297
        outSlope: -11.3962297
        tangentMode: 0
      - time: .233333334
        value: .207909748
        inSlope: -12.2021189
        outSlope: -12.2021189
        tangentMode: 0
      - time: .25
        value: -1.99477131e-06
        inSlope: -12.4747038
        outSlope: -12.4747038
        tangentMode: 0
      - time: .266666681
        value: -.207913876
        inSlope: -12.2020969
        outSlope: -12.2020969
        tangentMode: 0
      - time: .283333361
        value: -.406738907
        inSlope: -11.3961983
        outSlope: -11.3961983
        tangentMode: 0
      - time: .300000042
        value: -.587787449
        inSlope: -10.0922298
        outSlope: -10.0922298
        tangentMode: 0
      - time: .316666722
        value: -.743146837
        inSlope: -8.34718323
        outSlope: -8.34718323
        tangentMode: 0
      - time: .333333403
        value: -.866027117
        inSlope: -6.23731995
        outSlope: -6.23731995
        tangentMode: 0
      - time: .350000083
        value: -.951057673
        inSlope: -3.85485315
        outSlope: -3.85485315
        tangentMode: 0
      - time: .366666764
        value: -.994522333
        inSlope: -1.30391371
        outSlope: -1.30391371
        tangentMode: 0
      - time: .383333445
        value: -.994521499
        inSlope: 1.30401385
        outSlope: 1.30401385
        tangentMode: 0
      - time: .400000125
        value: -.951055169
        inSlope: 3.8549428
        outSlope: 3.8549428
        tangentMode: 0
      - time: .416666806
        value: -.866023302
        inSlope: 6.23740387
        outSlope: 6.23740387
        tangentMode: 0
      - time: .433333486
        value: -.743141532
        inSlope: 8.34724808
        outSlope: 8.34724808
        tangentMode: 0
      - time: .450000167
        value: -.587781489
        inSlope: 10.0922871
        outSlope: 10.0922871
        tangentMode: 0
      - time: .466666847
        value: -.406731695
        inSlope: 11.3962364
        outSlope: 11.3962364
        tangentMode: 0
      - time: .483333528
        value: -.207906634
        inSlope: 12.2021523
        outSlope: 12.2021523
        tangentMode: 0
      - time: .5
        value: 4.46637978e-06
        inSlope: 12.4748116
        outSlope: 12.4748116
        tangentMode: 0
      m_PreInfinity: 2
      m_PostInfinity: 2
    attribute: m_LocalRotation.z
    path: 
    classID: 4
    script: {fileID: 0}
  - curve:
      serializedVersion: 2
      m_Curve:
      - time: 0
        value: 1
        inSlope: -1.3111459
        outSlope: -1.3111459
        tangentMode: 0
      - time: .0166666675
        value: .978147566
        inSlope: -2.59364057
        outSlope: -2.59364057
        tangentMode: 0
      - time: .0333333351
        value: .91354531
        inSlope: -5.07392359
        outSlope: -5.07392359
        tangentMode: 0
      - time: .0500000045
        value: .809016764
        inSlope: -7.33245468
        outSlope: -7.33245468
        tangentMode: 0
      - time: .0666666701
        value: .669130147
        inSlope: -9.27052307
        outSlope: -9.27052307
        tangentMode: 0
      - time: .0833333358
        value: .499999344
        inSlope: -10.8034201
        outSlope: -10.8034201
        tangentMode: 0
      - time: .100000001
        value: .309016168
        inSlope: -11.8641605
        outSlope: -11.8641605
        tangentMode: 0
      - time: .116666667
        value: .104527354
        inSlope: -12.4063702
        outSlope: -12.4063702
        tangentMode: 0
      - time: .13333334
        value: -.104529575
        inSlope: -12.4063635
        outSlope: -12.4063635
        tangentMode: 0
      - time: .150000006
        value: -.309018165
        inSlope: -11.8641453
        outSlope: -11.8641453
        tangentMode: 0
      - time: .166666672
        value: -.500001073
        inSlope: -10.8034058
        outSlope: -10.8034058
        tangentMode: 0
      - time: .183333337
        value: -.669131696
        inSlope: -9.27050495
        outSlope: -9.27050495
        tangentMode: 0
      - time: .200000003
        value: -.809017897
        inSlope: -7.33243179
        outSlope: -7.33243179
        tangentMode: 0
      - time: .216666669
        value: -.913546085
        inSlope: -5.07390499
        outSlope: -5.07390499
        tangentMode: 0
      - time: .233333334
        value: -.978148043
        inSlope: -2.59361768
        outSlope: -2.59361768
        tangentMode: 0
      - time: .25
        value: -1
        inSlope: 2.62260437e-05
        outSlope: 2.62260437e-05
        tangentMode: 0
      - time: .266666681
        value: -.978147149
        inSlope: 2.59366345
        outSlope: 2.59366345
        tangentMode: 0
      - time: .283333361
        value: -.913544476
        inSlope: 5.07394838
        outSlope: 5.07394838
        tangentMode: 0
      - time: .300000042
        value: -.809015393
        inSlope: 7.33247566
        outSlope: 7.33247566
        tangentMode: 0
      - time: .316666722
        value: -.669128418
        inSlope: 9.27054405
        outSlope: 9.27054405
        tangentMode: 0
      - time: .333333403
        value: -.49999702
        inSlope: 10.8034391
        outSlope: 10.8034391
        tangentMode: 0
      - time: .350000083
        value: -.309013486
        inSlope: 11.8641787
        outSlope: 11.8641787
        tangentMode: 0
      - time: .366666764
        value: -.104524069
        inSlope: 12.4063587
        outSlope: 12.4063587
        tangentMode: 0
      - time: .383333445
        value: .104532152
        inSlope: 12.4063482
        outSlope: 12.4063482
        tangentMode: 0
      - time: .400000125
        value: .309021205
        inSlope: 11.8641348
        outSlope: 11.8641348
        tangentMode: 0
      - time: .416666806
        value: .500003636
        inSlope: 10.8033829
        outSlope: 10.8033829
        tangentMode: 0
      - time: .433333486
        value: .669134259
        inSlope: 9.27047539
        outSlope: 9.27047539
        tangentMode: 0
      - time: .450000167
        value: .809019744
        inSlope: 7.33239508
        outSlope: 7.33239508
        tangentMode: 0
      - time: .466666847
        value: .913547635
        inSlope: 5.07386446
        outSlope: 5.07386446
        tangentMode: 0
      - time: .483333528
        value: .978148699
        inSlope: 2.59357691
        outSlope: 2.59357691
        tangentMode: 0
      - time: .5
        value: 1
        inSlope: 1.31109333
        outSlope: 1.31109333
        tangentMode: 0
      m_PreInfinity: 2
      m_PostInfinity: 2
    attribute: m_LocalRotation.w
    path: 
    classID: 4
    script: {fileID: 0}
  m_EulerEditorCurves:
  - curve:
      serializedVersion: 2
      m_Curve:
      - time: 0
        value: 0
        inSlope: 0
        outSlope: 0
        tangentMode: 10
      - time: .5
        value: 0
        inSlope: 0
        outSlope: 0
        tangentMode: 10
      m_PreInfinity: 2
      m_PostInfinity: 2
    attribute: localEulerAnglesBaked.x
    path: 
    classID: 4
    script: {fileID: 0}
  - curve:
      serializedVersion: 2
      m_Curve:
      - time: 0
        value: 0
        inSlope: 0
        outSlope: 0
        tangentMode: 10
      - time: .5
        value: 0
        inSlope: 0
        outSlope: 0
        tangentMode: 10
      m_PreInfinity: 2
      m_PostInfinity: 2
    attribute: localEulerAnglesBaked.y
    path: 
    classID: 4
    script: {fileID: 0}
  - curve:
      serializedVersion: 2
      m_Curve:
      - time: 0
        value: 0
        inSlope: 1440.00085
        outSlope: 1440.00085
        tangentMode: 10
      - time: .5
        value: 720.000427
        inSlope: 1440.00085
        outSlope: 1440.00085
        tangentMode: 10
      m_PreInfinity: 2
      m_PostInfinity: 2
    attribute: localEulerAnglesBaked.z
    path: 
    classID: 4
    script: {fileID: 0}
  m_Events: []
