%YAML 1.1
%TAG !u! tag:unity3d.com,2011:
--- !u!74 &7400000
AnimationClip:
  m_ObjectHideFlags: 0
  m_PrefabParentObject: {fileID: 0}
  m_PrefabInternal: {fileID: 0}
  m_Name: jellyButtonMenuOnPauseRelease
  serializedVersion: 4
  m_AnimationType: 2
  m_Compressed: 0
  m_UseHighQualityCurve: 1
  m_RotationCurves:
  - curve:
      serializedVersion: 2
      m_Curve:
      - time: 0
        value: {x: 0, y: 0, z: 4.94321694e-06, w: 1}
        inSlope: {x: 0, y: 0, z: -12.4747219, w: -1.3110851}
        outSlope: {x: 0, y: 0, z: -12.4747219, w: -1.3110851}
        tangentMode: 0
      - time: .0166666675
        value: {x: 0, y: 0, z: -.207907096, w: .97814858}
        inSlope: {x: 0, y: 0, z: -12.2021246, w: -2.59358144}
        outSlope: {x: 0, y: 0, z: -12.2021246, w: -2.59358144}
        tangentMode: 1065353216
      - time: .0333333351
        value: {x: 0, y: 0, z: -.406732559, w: .913547277}
        inSlope: {x: 0, y: 0, z: -11.3962412, w: -5.07387352}
        outSlope: {x: 0, y: 0, z: -11.3962412, w: -5.07387352}
        tangentMode: 0
      - time: .0500000045
        value: {x: 0, y: 0, z: -.587781847, w: .809019446}
        inSlope: {x: 0, y: 0, z: -10.0922775, w: -7.33240128}
        outSlope: {x: 0, y: 0, z: -10.0922775, w: -7.33240128}
        tangentMode: 0
      - time: .0666666701
        value: {x: 0, y: 0, z: -.74314183, w: .669133902}
        inSlope: {x: 0, y: 0, z: -8.34724426, w: -9.27047539}
        outSlope: {x: 0, y: 0, z: -8.34724426, w: -9.27047539}
        tangentMode: 0
      - time: .0833333358
        value: {x: 0, y: 0, z: -.866023302, w: .500003636}
        inSlope: {x: 0, y: 0, z: -6.23740959, w: -10.8034086}
        outSlope: {x: 0, y: 0, z: -6.23740959, w: -10.8034086}
        tangentMode: 0
      - time: .100000001
        value: {x: 0, y: 0, z: -.951055467, w: .309020311}
        inSlope: {x: 0, y: 0, z: -3.85494614, w: -11.8641453}
        outSlope: {x: 0, y: 0, z: -3.85494614, w: -11.8641453}
        tangentMode: 0
      - time: .116666667
        value: {x: 0, y: 0, z: -.994521499, w: .104532152}
        inSlope: {x: 0, y: 0, z: -1.30400431, w: -12.4063578}
        outSlope: {x: 0, y: 0, z: -1.30400431, w: -12.4063578}
        tangentMode: 0
      - time: .13333334
        value: {x: 0, y: 0, z: -.994522274, w: -.104525015}
        inSlope: {x: 0, y: 0, z: 1.30392027, w: -12.4063807}
        outSlope: {x: 0, y: 0, z: 1.30392027, w: -12.4063807}
        tangentMode: 0
      - time: .150000006
        value: {x: 0, y: 0, z: -.951057494, w: -.309013933}
        inSlope: {x: 0, y: 0, z: 3.85486221, w: -11.864172}
        outSlope: {x: 0, y: 0, z: 3.85486221, w: -11.864172}
        tangentMode: 0
      - time: .166666672
        value: {x: 0, y: 0, z: -.866026878, w: -.499997407}
        inSlope: {x: 0, y: 0, z: 6.23731995, w: -10.8034353}
        outSlope: {x: 0, y: 0, z: 6.23731995, w: -10.8034353}
        tangentMode: 0
      - time: .183333337
        value: {x: 0, y: 0, z: -.743146837, w: -.669128418}
        inSlope: {x: 0, y: 0, z: 8.34718323, w: -9.27054024}
        outSlope: {x: 0, y: 0, z: 8.34718323, w: -9.27054024}
        tangentMode: 0
      - time: .200000003
        value: {x: 0, y: 0, z: -.587787449, w: -.809015393}
        inSlope: {x: 0, y: 0, z: 10.0922318, w: -7.33247852}
        outSlope: {x: 0, y: 0, z: 10.0922318, w: -7.33247852}
        tangentMode: 0
      - time: .216666669
        value: {x: 0, y: 0, z: -.406739116, w: -.913544357}
        inSlope: {x: 0, y: 0, z: 11.3962002, w: -5.07395124}
        outSlope: {x: 0, y: 0, z: 11.3962002, w: -5.07395124}
        tangentMode: 0
      - time: .233333334
        value: {x: 0, y: 0, z: -.207914114, w: -.978147089}
        inSlope: {x: 0, y: 0, z: 12.2020998, w: -2.59366941}
        outSlope: {x: 0, y: 0, z: 12.2020998, w: -2.59366941}
        tangentMode: 0
      - time: .25
        value: {x: 0, y: 0, z: -2.47160847e-06, w: -1}
        inSlope: {x: 0, y: 0, z: 12.4747038, w: -2.92062759e-05}
        outSlope: {x: 0, y: 0, z: 12.4747038, w: -2.92062759e-05}
        tangentMode: 0
      - time: .266666681
        value: {x: 0, y: 0, z: .20790951, w: -.978148043}
        inSlope: {x: 0, y: 0, z: 12.2021084, w: 2.59360981}
        outSlope: {x: 0, y: 0, z: 12.2021084, w: 2.59360981}
        tangentMode: 0
      - time: .283333361
        value: {x: 0, y: 0, z: .406734824, w: -.913546264}
        inSlope: {x: 0, y: 0, z: 11.3962326, w: 5.07390547}
        outSlope: {x: 0, y: 0, z: 11.3962326, w: 5.07390547}
        tangentMode: 1065353215
      - time: .300000042
        value: {x: 0, y: 0, z: .587784231, w: -.809017718}
        inSlope: {x: 0, y: 0, z: 10.0922718, w: 7.33244181}
        outSlope: {x: 0, y: 0, z: 10.0922718, w: 7.33244181}
        tangentMode: 1065353216
      - time: .316666722
        value: {x: 0, y: 0, z: .743144155, w: -.669131339}
        inSlope: {x: 0, y: 0, z: 8.34721756, w: 9.270504}
        outSlope: {x: 0, y: 0, z: 8.34721756, w: 9.270504}
        tangentMode: 0
      - time: .333333403
        value: {x: 0, y: 0, z: .866025031, w: -.500000656}
        inSlope: {x: 0, y: 0, z: 6.23736095, w: 10.8034096}
        outSlope: {x: 0, y: 0, z: 6.23736095, w: 10.8034096}
        tangentMode: 0
      - time: .350000083
        value: {x: 0, y: 0, z: .951056361, w: -.30901739}
        inSlope: {x: 0, y: 0, z: 3.85490179, w: 11.864151}
        outSlope: {x: 0, y: 0, z: 3.85490179, w: 11.864151}
        tangentMode: 0
      - time: .366666764
        value: {x: 0, y: 0, z: .994521856, w: -.104528628}
        inSlope: {x: 0, y: 0, z: 1.30396378, w: 12.4063778}
        outSlope: {x: 0, y: 0, z: 1.30396378, w: 12.4063778}
        tangentMode: 0
      - time: .383333445
        value: {x: 0, y: 0, z: .994521856, w: .104528897}
        inSlope: {x: 0, y: 0, z: -1.30396378, w: 12.4063702}
        outSlope: {x: 0, y: 0, z: -1.30396378, w: 12.4063702}
        tangentMode: 0
      - time: .400000125
        value: {x: 0, y: 0, z: .951056361, w: .30901742}
        inSlope: {x: 0, y: 0, z: -3.85490322, w: 11.8641462}
        outSlope: {x: 0, y: 0, z: -3.85490322, w: 11.8641462}
        tangentMode: 0
      - time: .416666806
        value: {x: 0, y: 0, z: .866024971, w: .500000775}
        inSlope: {x: 0, y: 0, z: -6.23737144, w: 10.803421}
        outSlope: {x: 0, y: 0, z: -6.23737144, w: 10.803421}
        tangentMode: 0
      - time: .433333486
        value: {x: 0, y: 0, z: .743143797, w: .669131756}
        inSlope: {x: 0, y: 0, z: -8.34722233, w: 9.27050591}
        outSlope: {x: 0, y: 0, z: -8.34722233, w: 9.27050591}
        tangentMode: 0
      - time: .450000167
        value: {x: 0, y: 0, z: .587783992, w: .809017897}
        inSlope: {x: 0, y: 0, z: -10.0922642, w: 7.33243084}
        outSlope: {x: 0, y: 0, z: -10.0922642, w: 7.33243084}
        tangentMode: 0
      - time: .466666847
        value: {x: 0, y: 0, z: .406734735, w: .913546324}
        inSlope: {x: 0, y: 0, z: -11.3962212, w: 5.07390022}
        outSlope: {x: 0, y: 0, z: -11.3962212, w: 5.07390022}
        tangentMode: 0
      - time: .483333528
        value: {x: 0, y: 0, z: .207909629, w: .978148043}
        inSlope: {x: 0, y: 0, z: -12.2021103, w: 2.59361625}
        outSlope: {x: 0, y: 0, z: -12.2021103, w: 2.59361625}
        tangentMode: 0
      - time: .5
        value: {x: 0, y: 0, z: 0, w: 1}
        inSlope: {x: 0, y: 0, z: -12.4747238, w: 1.31113267}
        outSlope: {x: 0, y: 0, z: -12.4747238, w: 1.31113267}
        tangentMode: 0
      m_PreInfinity: 2
      m_PostInfinity: 2
    path: 
  m_CompressedRotationCurves: []
  m_PositionCurves:
  - curve:
      serializedVersion: 2
      m_Curve:
      - time: 0
        value: {x: 1.39999998, y: -1.46500003, z: 0}
        inSlope: {x: 0, y: 0, z: 0}
        outSlope: {x: 0, y: 0, z: 0}
        tangentMode: 8
      - time: .5
        value: {x: 1.39999998, y: -1.46500003, z: 0}
        inSlope: {x: 0, y: 0, z: 0}
        outSlope: {x: 0, y: 0, z: 0}
        tangentMode: 0
      m_PreInfinity: 2
      m_PostInfinity: 2
    path: 
  m_ScaleCurves:
  - curve:
      serializedVersion: 2
      m_Curve:
      - time: 0
        value: {x: 1, y: 1, z: 1}
        inSlope: {x: -2, y: -2, z: -2}
        outSlope: {x: -2, y: -2, z: -2}
        tangentMode: 0
      - time: .5
        value: {x: 0, y: 0, z: 0}
        inSlope: {x: -2, y: -2, z: -2}
        outSlope: {x: -2, y: -2, z: -2}
        tangentMode: 125566976
      m_PreInfinity: 2
      m_PostInfinity: 2
    path: 
  m_FloatCurves: []
  m_PPtrCurves: []
  m_SampleRate: 60
  m_WrapMode: 0
  m_Bounds:
    m_Center: {x: 0, y: 0, z: 0}
    m_Extent: {x: 0, y: 0, z: 0}
  m_AnimationClipSettings:
    serializedVersion: 2
    m_StartTime: 0
    m_StopTime: .5
    m_OrientationOffsetY: 0
    m_Level: 0
    m_CycleOffset: 0
    m_LoopTime: 1
    m_LoopBlend: 0
    m_LoopBlendOrientation: 0
    m_LoopBlendPositionY: 0
    m_LoopBlendPositionXZ: 0
    m_KeepOriginalOrientation: 0
    m_KeepOriginalPositionY: 1
    m_KeepOriginalPositionXZ: 0
    m_HeightFromFeet: 0
    m_Mirror: 0
  m_EditorCurves:
  - curve:
      serializedVersion: 2
      m_Curve:
      - time: 0
        value: 1.39999998
        inSlope: 0
        outSlope: 0
        tangentMode: 10
      - time: .5
        value: 1.39999998
        inSlope: 0
        outSlope: 0
        tangentMode: 10
      m_PreInfinity: 2
      m_PostInfinity: 2
    attribute: m_LocalPosition.x
    path: 
    classID: 4
    script: {fileID: 0}
  - curve:
      serializedVersion: 2
      m_Curve:
      - time: 0
        value: -1.46500003
        inSlope: 0
        outSlope: 0
        tangentMode: 10
      - time: .5
        value: -1.46500003
        inSlope: 0
        outSlope: 0
        tangentMode: 10
      m_PreInfinity: 2
      m_PostInfinity: 2
    attribute: m_LocalPosition.y
    path: 
    classID: 4
    script: {fileID: 0}
  - curve:
      serializedVersion: 2
      m_Curve:
      - time: 0
        value: 0
        inSlope: 0
        outSlope: 0
        tangentMode: 10
      - time: .5
        value: 0
        inSlope: 0
        outSlope: 0
        tangentMode: 10
      m_PreInfinity: 2
      m_PostInfinity: 2
    attribute: m_LocalPosition.z
    path: 
    classID: 4
    script: {fileID: 0}
  - curve:
      serializedVersion: 2
      m_Curve:
      - time: 0
        value: 1
        inSlope: -2
        outSlope: -2
        tangentMode: 10
      - time: .5
        value: 0
        inSlope: -2
        outSlope: -2
        tangentMode: 10
      m_PreInfinity: 2
      m_PostInfinity: 2
    attribute: m_LocalScale.z
    path: 
    classID: 4
    script: {fileID: 0}
  - curve:
      serializedVersion: 2
      m_Curve:
      - time: 0
        value: 1
        inSlope: -2
        outSlope: -2
        tangentMode: 10
      - time: .5
        value: 0
        inSlope: -2
        outSlope: -2
        tangentMode: 10
      m_PreInfinity: 2
      m_PostInfinity: 2
    attribute: m_LocalScale.y
    path: 
    classID: 4
    script: {fileID: 0}
  - curve:
      serializedVersion: 2
      m_Curve:
      - time: 0
        value: 1
        inSlope: -2
        outSlope: -2
        tangentMode: 10
      - time: .5
        value: 0
        inSlope: -2
        outSlope: -2
        tangentMode: 10
      m_PreInfinity: 2
      m_PostInfinity: 2
    attribute: m_LocalScale.x
    path: 
    classID: 4
    script: {fileID: 0}
  - curve:
      serializedVersion: 2
      m_Curve:
      - time: 0
        value: 0
        inSlope: 0
        outSlope: 0
        tangentMode: 0
      - time: .0166666675
        value: 0
        inSlope: 0
        outSlope: 0
        tangentMode: 0
      - time: .0333333351
        value: 0
        inSlope: 0
        outSlope: 0
        tangentMode: 0
      - time: .0500000045
        value: 0
        inSlope: 0
        outSlope: 0
        tangentMode: 0
      - time: .0666666701
        value: 0
        inSlope: 0
        outSlope: 0
        tangentMode: 0
      - time: .0833333358
        value: 0
        inSlope: 0
        outSlope: 0
        tangentMode: 0
      - time: .100000001
        value: 0
        inSlope: 0
        outSlope: 0
        tangentMode: 0
      - time: .116666667
        value: 0
        inSlope: 0
        outSlope: 0
        tangentMode: 0
      - time: .13333334
        value: 0
        inSlope: 0
        outSlope: 0
        tangentMode: 0
      - time: .150000006
        value: 0
        inSlope: 0
        outSlope: 0
        tangentMode: 0
      - time: .166666672
        value: 0
        inSlope: 0
        outSlope: 0
        tangentMode: 0
      - time: .183333337
        value: 0
        inSlope: 0
        outSlope: 0
        tangentMode: 0
      - time: .200000003
        value: 0
        inSlope: 0
        outSlope: 0
        tangentMode: 0
      - time: .216666669
        value: 0
        inSlope: 0
        outSlope: 0
        tangentMode: 0
      - time: .233333334
        value: 0
        inSlope: 0
        outSlope: 0
        tangentMode: 0
      - time: .25
        value: 0
        inSlope: 0
        outSlope: 0
        tangentMode: 0
      - time: .266666681
        value: 0
        inSlope: 0
        outSlope: 0
        tangentMode: 0
      - time: .283333361
        value: 0
        inSlope: 0
        outSlope: 0
        tangentMode: 0
      - time: .300000042
        value: 0
        inSlope: 0
        outSlope: 0
        tangentMode: 0
      - time: .316666722
        value: 0
        inSlope: 0
        outSlope: 0
        tangentMode: 0
      - time: .333333403
        value: 0
        inSlope: 0
        outSlope: 0
        tangentMode: 0
      - time: .350000083
        value: 0
        inSlope: 0
        outSlope: 0
        tangentMode: 0
      - time: .366666764
        value: 0
        inSlope: 0
        outSlope: 0
        tangentMode: 0
      - time: .383333445
        value: 0
        inSlope: 0
        outSlope: 0
        tangentMode: 0
      - time: .400000125
        value: 0
        inSlope: 0
        outSlope: 0
        tangentMode: 0
      - time: .416666806
        value: 0
        inSlope: 0
        outSlope: 0
        tangentMode: 0
      - time: .433333486
        value: 0
        inSlope: 0
        outSlope: 0
        tangentMode: 0
      - time: .450000167
        value: 0
        inSlope: 0
        outSlope: 0
        tangentMode: 0
      - time: .466666847
        value: 0
        inSlope: 0
        outSlope: 0
        tangentMode: 0
      - time: .483333528
        value: 0
        inSlope: 0
        outSlope: 0
        tangentMode: 0
      - time: .5
        value: 0
        inSlope: 0
        outSlope: 0
        tangentMode: 0
      m_PreInfinity: 2
      m_PostInfinity: 2
    attribute: m_LocalRotation.x
    path: 
    classID: 4
    script: {fileID: 0}
  - curve:
      serializedVersion: 2
      m_Curve:
      - time: 0
        value: 0
        inSlope: 0
        outSlope: 0
        tangentMode: 0
      - time: .0166666675
        value: 0
        inSlope: 0
        outSlope: 0
        tangentMode: 0
      - time: .0333333351
        value: 0
        inSlope: 0
        outSlope: 0
        tangentMode: 0
      - time: .0500000045
        value: 0
        inSlope: 0
        outSlope: 0
        tangentMode: 0
      - time: .0666666701
        value: 0
        inSlope: 0
        outSlope: 0
        tangentMode: 0
      - time: .0833333358
        value: 0
        inSlope: 0
        outSlope: 0
        tangentMode: 0
      - time: .100000001
        value: 0
        inSlope: 0
        outSlope: 0
        tangentMode: 0
      - time: .116666667
        value: 0
        inSlope: 0
        outSlope: 0
        tangentMode: 0
      - time: .13333334
        value: 0
        inSlope: 0
        outSlope: 0
        tangentMode: 0
      - time: .150000006
        value: 0
        inSlope: 0
        outSlope: 0
        tangentMode: 0
      - time: .166666672
        value: 0
        inSlope: 0
        outSlope: 0
        tangentMode: 0
      - time: .183333337
        value: 0
        inSlope: 0
        outSlope: 0
        tangentMode: 0
      - time: .200000003
        value: 0
        inSlope: 0
        outSlope: 0
        tangentMode: 0
      - time: .216666669
        value: 0
        inSlope: 0
        outSlope: 0
        tangentMode: 0
      - time: .233333334
        value: 0
        inSlope: 0
        outSlope: 0
        tangentMode: 0
      - time: .25
        value: 0
        inSlope: 0
        outSlope: 0
        tangentMode: 0
      - time: .266666681
        value: 0
        inSlope: 0
        outSlope: 0
        tangentMode: 0
      - time: .283333361
        value: 0
        inSlope: 0
        outSlope: 0
        tangentMode: 0
      - time: .300000042
        value: 0
        inSlope: 0
        outSlope: 0
        tangentMode: 0
      - time: .316666722
        value: 0
        inSlope: 0
        outSlope: 0
        tangentMode: 0
      - time: .333333403
        value: 0
        inSlope: 0
        outSlope: 0
        tangentMode: 0
      - time: .350000083
        value: 0
        inSlope: 0
        outSlope: 0
        tangentMode: 0
      - time: .366666764
        value: 0
        inSlope: 0
        outSlope: 0
        tangentMode: 0
      - time: .383333445
        value: 0
        inSlope: 0
        outSlope: 0
        tangentMode: 0
      - time: .400000125
        value: 0
        inSlope: 0
        outSlope: 0
        tangentMode: 0
      - time: .416666806
        value: 0
        inSlope: 0
        outSlope: 0
        tangentMode: 0
      - time: .433333486
        value: 0
        inSlope: 0
        outSlope: 0
        tangentMode: 0
      - time: .450000167
        value: 0
        inSlope: 0
        outSlope: 0
        tangentMode: 0
      - time: .466666847
        value: 0
        inSlope: 0
        outSlope: 0
        tangentMode: 0
      - time: .483333528
        value: 0
        inSlope: 0
        outSlope: 0
        tangentMode: 0
      - time: .5
        value: 0
        inSlope: 0
        outSlope: 0
        tangentMode: 0
      m_PreInfinity: 2
      m_PostInfinity: 2
    attribute: m_LocalRotation.y
    path: 
    classID: 4
    script: {fileID: 0}
  - curve:
      serializedVersion: 2
      m_Curve:
      - time: 0
        value: 4.94321694e-06
        inSlope: -12.4747219
        outSlope: -12.4747219
        tangentMode: 0
      - time: .0166666675
        value: -.207907096
        inSlope: -12.2021246
        outSlope: -12.2021246
        tangentMode: 0
      - time: .0333333351
        value: -.406732559
        inSlope: -11.3962412
        outSlope: -11.3962412
        tangentMode: 0
      - time: .0500000045
        value: -.587781847
        inSlope: -10.0922775
        outSlope: -10.0922775
        tangentMode: 0
      - time: .0666666701
        value: -.74314183
        inSlope: -8.34724426
        outSlope: -8.34724426
        tangentMode: 0
      - time: .0833333358
        value: -.866023302
        inSlope: -6.23740959
        outSlope: -6.23740959
        tangentMode: 0
      - time: .100000001
        value: -.951055467
        inSlope: -3.85494614
        outSlope: -3.85494614
        tangentMode: 0
      - time: .116666667
        value: -.994521499
        inSlope: -1.30400431
        outSlope: -1.30400431
        tangentMode: 0
      - time: .13333334
        value: -.994522274
        inSlope: 1.30392027
        outSlope: 1.30392027
        tangentMode: 0
      - time: .150000006
        value: -.951057494
        inSlope: 3.85486221
        outSlope: 3.85486221
        tangentMode: 0
      - time: .166666672
        value: -.866026878
        inSlope: 6.23731995
        outSlope: 6.23731995
        tangentMode: 0
      - time: .183333337
        value: -.743146837
        inSlope: 8.34718323
        outSlope: 8.34718323
        tangentMode: 0
      - time: .200000003
        value: -.587787449
        inSlope: 10.0922318
        outSlope: 10.0922318
        tangentMode: 0
      - time: .216666669
        value: -.406739116
        inSlope: 11.3962002
        outSlope: 11.3962002
        tangentMode: 0
      - time: .233333334
        value: -.207914114
        inSlope: 12.2020998
        outSlope: 12.2020998
        tangentMode: 0
      - time: .25
        value: -2.47160847e-06
        inSlope: 12.4747038
        outSlope: 12.4747038
        tangentMode: 0
      - time: .266666681
        value: .20790951
        inSlope: 12.2021084
        outSlope: 12.2021084
        tangentMode: 0
      - time: .283333361
        value: .406734824
        inSlope: 11.3962326
        outSlope: 11.3962326
        tangentMode: 0
      - time: .300000042
        value: .587784231
        inSlope: 10.0922718
        outSlope: 10.0922718
        tangentMode: 0
      - time: .316666722
        value: .743144155
        inSlope: 8.34721756
        outSlope: 8.34721756
        tangentMode: 0
      - time: .333333403
        value: .866025031
        inSlope: 6.23736095
        outSlope: 6.23736095
        tangentMode: 0
      - time: .350000083
        value: .951056361
        inSlope: 3.85490179
        outSlope: 3.85490179
        tangentMode: 0
      - time: .366666764
        value: .994521856
        inSlope: 1.30396378
        outSlope: 1.30396378
        tangentMode: 0
      - time: .383333445
        value: .994521856
        inSlope: -1.30396378
        outSlope: -1.30396378
        tangentMode: 0
      - time: .400000125
        value: .951056361
        inSlope: -3.85490322
        outSlope: -3.85490322
        tangentMode: 0
      - time: .416666806
        value: .866024971
        inSlope: -6.23737144
        outSlope: -6.23737144
        tangentMode: 0
      - time: .433333486
        value: .743143797
        inSlope: -8.34722233
        outSlope: -8.34722233
        tangentMode: 0
      - time: .450000167
        value: .587783992
        inSlope: -10.0922642
        outSlope: -10.0922642
        tangentMode: 0
      - time: .466666847
        value: .406734735
        inSlope: -11.3962212
        outSlope: -11.3962212
        tangentMode: 0
      - time: .483333528
        value: .207909629
        inSlope: -12.2021103
        outSlope: -12.2021103
        tangentMode: 0
      - time: .5
        value: 0
        inSlope: -12.4747238
        outSlope: -12.4747238
        tangentMode: 0
      m_PreInfinity: 2
      m_PostInfinity: 2
    attribute: m_LocalRotation.z
    path: 
    classID: 4
    script: {fileID: 0}
  - curve:
      serializedVersion: 2
      m_Curve:
      - time: 0
        value: 1
        inSlope: -1.3110851
        outSlope: -1.3110851
        tangentMode: 0
      - time: .0166666675
        value: .97814858
        inSlope: -2.59358144
        outSlope: -2.59358144
        tangentMode: 0
      - time: .0333333351
        value: .913547277
        inSlope: -5.07387352
        outSlope: -5.07387352
        tangentMode: 0
      - time: .0500000045
        value: .809019446
        inSlope: -7.33240128
        outSlope: -7.33240128
        tangentMode: 0
      - time: .0666666701
        value: .669133902
        inSlope: -9.27047539
        outSlope: -9.27047539
        tangentMode: 0
      - time: .0833333358
        value: .500003636
        inSlope: -10.8034086
        outSlope: -10.8034086
        tangentMode: 0
      - time: .100000001
        value: .309020311
        inSlope: -11.8641453
        outSlope: -11.8641453
        tangentMode: 0
      - time: .116666667
        value: .104532152
        inSlope: -12.4063578
        outSlope: -12.4063578
        tangentMode: 0
      - time: .13333334
        value: -.104525015
        inSlope: -12.4063807
        outSlope: -12.4063807
        tangentMode: 0
      - time: .150000006
        value: -.309013933
        inSlope: -11.864172
        outSlope: -11.864172
        tangentMode: 0
      - time: .166666672
        value: -.499997407
        inSlope: -10.8034353
        outSlope: -10.8034353
        tangentMode: 0
      - time: .183333337
        value: -.669128418
        inSlope: -9.27054024
        outSlope: -9.27054024
        tangentMode: 0
      - time: .200000003
        value: -.809015393
        inSlope: -7.33247852
        outSlope: -7.33247852
        tangentMode: 0
      - time: .216666669
        value: -.913544357
        inSlope: -5.07395124
        outSlope: -5.07395124
        tangentMode: 0
      - time: .233333334
        value: -.978147089
        inSlope: -2.59366941
        outSlope: -2.59366941
        tangentMode: 0
      - time: .25
        value: -1
        inSlope: -2.92062759e-05
        outSlope: -2.92062759e-05
        tangentMode: 0
      - time: .266666681
        value: -.978148043
        inSlope: 2.59360981
        outSlope: 2.59360981
        tangentMode: 0
      - time: .283333361
        value: -.913546264
        inSlope: 5.07390547
        outSlope: 5.07390547
        tangentMode: 0
      - time: .300000042
        value: -.809017718
        inSlope: 7.33244181
        outSlope: 7.33244181
        tangentMode: 0
      - time: .316666722
        value: -.669131339
        inSlope: 9.270504
        outSlope: 9.270504
        tangentMode: 0
      - time: .333333403
        value: -.500000656
        inSlope: 10.8034096
        outSlope: 10.8034096
        tangentMode: 0
      - time: .350000083
        value: -.30901739
        inSlope: 11.864151
        outSlope: 11.864151
        tangentMode: 0
      - time: .366666764
        value: -.104528628
        inSlope: 12.4063778
        outSlope: 12.4063778
        tangentMode: 0
      - time: .383333445
        value: .104528897
        inSlope: 12.4063702
        outSlope: 12.4063702
        tangentMode: 0
      - time: .400000125
        value: .30901742
        inSlope: 11.8641462
        outSlope: 11.8641462
        tangentMode: 0
      - time: .416666806
        value: .500000775
        inSlope: 10.803421
        outSlope: 10.803421
        tangentMode: 0
      - time: .433333486
        value: .669131756
        inSlope: 9.27050591
        outSlope: 9.27050591
        tangentMode: 0
      - time: .450000167
        value: .809017897
        inSlope: 7.33243084
        outSlope: 7.33243084
        tangentMode: 0
      - time: .466666847
        value: .913546324
        inSlope: 5.07390022
        outSlope: 5.07390022
        tangentMode: 0
      - time: .483333528
        value: .978148043
        inSlope: 2.59361625
        outSlope: 2.59361625
        tangentMode: 0
      - time: .5
        value: 1
        inSlope: 1.31113267
        outSlope: 1.31113267
        tangentMode: 0
      m_PreInfinity: 2
      m_PostInfinity: 2
    attribute: m_LocalRotation.w
    path: 
    classID: 4
    script: {fileID: 0}
  m_EulerEditorCurves:
  - curve:
      serializedVersion: 2
      m_Curve:
      - time: 0
        value: 0
        inSlope: 0
        outSlope: 0
        tangentMode: 10
      - time: .5
        value: 0
        inSlope: 0
        outSlope: 0
        tangentMode: 10
      m_PreInfinity: 2
      m_PostInfinity: 2
    attribute: localEulerAnglesBaked.x
    path: 
    classID: 4
    script: {fileID: 0}
  - curve:
      serializedVersion: 2
      m_Curve:
      - time: 0
        value: 0
        inSlope: 0
        outSlope: 0
        tangentMode: 10
      - time: .5
        value: 0
        inSlope: 0
        outSlope: 0
        tangentMode: 10
      m_PreInfinity: 2
      m_PostInfinity: 2
    attribute: localEulerAnglesBaked.y
    path: 
    classID: 4
    script: {fileID: 0}
  - curve:
      serializedVersion: 2
      m_Curve:
      - time: 0
        value: 720.000488
        inSlope: -1440.00098
        outSlope: -1440.00098
        tangentMode: 10
      - time: .5
        value: 0
        inSlope: -1440.00098
        outSlope: -1440.00098
        tangentMode: 10
      m_PreInfinity: 2
      m_PostInfinity: 2
    attribute: localEulerAnglesBaked.z
    path: 
    classID: 4
    script: {fileID: 0}
  m_Events: []
