%YAML 1.1
%TAG !u! tag:unity3d.com,2011:
--- !u!74 &7400000
AnimationClip:
  m_ObjectHideFlags: 0
  m_PrefabParentObject: {fileID: 0}
  m_PrefabInternal: {fileID: 0}
  m_Name: jellyButtonReplayOnPauseRelease
  serializedVersion: 4
  m_AnimationType: 2
  m_Compressed: 0
  m_UseHighQualityCurve: 1
  m_RotationCurves:
  - curve:
      serializedVersion: 2
      m_Curve:
      - time: 0
        value: {x: 0, y: 0, z: 4.46637978e-06, w: 1}
        inSlope: {x: 0, y: 0, z: -12.474721, w: -1.31109226}
        outSlope: {x: 0, y: 0, z: -12.474721, w: -1.31109226}
        tangentMode: 370017536
      - time: .0166666675
        value: {x: 0, y: 0, z: -.207907557, w: .97814846}
        inSlope: {x: 0, y: 0, z: -12.2021236, w: -2.59358692}
        outSlope: {x: 0, y: 0, z: -12.2021236, w: -2.59358692}
        tangentMode: 0
      - time: .0333333351
        value: {x: 0, y: 0, z: -.406733006, w: .913547099}
        inSlope: {x: 0, y: 0, z: -11.3962383, w: -5.07387686}
        outSlope: {x: 0, y: 0, z: -11.3962383, w: -5.07387686}
        tangentMode: 899992781
      - time: .0500000045
        value: {x: 0, y: 0, z: -.587782204, w: .809019208}
        inSlope: {x: 0, y: 0, z: -10.0922756, w: -7.33240652}
        outSlope: {x: 0, y: 0, z: -10.0922756, w: -7.33240652}
        tangentMode: 0
      - time: .0666666701
        value: {x: 0, y: 0, z: -.743142188, w: .669133544}
        inSlope: {x: 0, y: 0, z: -8.34724045, w: -9.27048111}
        outSlope: {x: 0, y: 0, z: -8.34724045, w: -9.27048111}
        tangentMode: 1
      - time: .0833333358
        value: {x: 0, y: 0, z: -.86602354, w: .500003219}
        inSlope: {x: 0, y: 0, z: -6.23739862, w: -10.8033981}
        outSlope: {x: 0, y: 0, z: -6.23739862, w: -10.8033981}
        tangentMode: 0
      - time: .100000001
        value: {x: 0, y: 0, z: -.951055467, w: .309020311}
        inSlope: {x: 0, y: 0, z: -3.85494089, w: -11.8641472}
        outSlope: {x: 0, y: 0, z: -3.85494089, w: -11.8641472}
        tangentMode: 1
      - time: .116666667
        value: {x: 0, y: 0, z: -.994521558, w: .104531676}
        inSlope: {x: 0, y: 0, z: -1.30400252, w: -12.4063721}
        outSlope: {x: 0, y: 0, z: -1.30400252, w: -12.4063721}
        tangentMode: 1065325259
      - time: .13333334
        value: {x: 0, y: 0, z: -.994522214, w: -.104525492}
        inSlope: {x: 0, y: 0, z: 1.30392206, w: -12.4063663}
        outSlope: {x: 0, y: 0, z: 1.30392206, w: -12.4063663}
        tangentMode: 370018000
      - time: .150000006
        value: {x: 0, y: 0, z: -.951057494, w: -.309013933}
        inSlope: {x: 0, y: 0, z: 3.85486031, w: -11.8641586}
        outSlope: {x: 0, y: 0, z: 3.85486031, w: -11.8641586}
        tangentMode: 0
      - time: .166666672
        value: {x: 0, y: 0, z: -.866026878, w: -.499997407}
        inSlope: {x: 0, y: 0, z: 6.23732567, w: -10.8034401}
        outSlope: {x: 0, y: 0, z: 6.23732567, w: -10.8034401}
        tangentMode: 72
      - time: .183333337
        value: {x: 0, y: 0, z: -.743146658, w: -.669128597}
        inSlope: {x: 0, y: 0, z: 8.34718323, w: -9.27054024}
        outSlope: {x: 0, y: 0, z: 8.34718323, w: -9.27054024}
        tangentMode: 370017876
      - time: .200000003
        value: {x: 0, y: 0, z: -.587787449, w: -.809015393}
        inSlope: {x: 0, y: 0, z: 10.092227, w: -7.33247328}
        outSlope: {x: 0, y: 0, z: 10.092227, w: -7.33247328}
        tangentMode: 1676158461
      - time: .216666669
        value: {x: 0, y: 0, z: -.406739116, w: -.913544357}
        inSlope: {x: 0, y: 0, z: 11.3962002, w: -5.07395124}
        outSlope: {x: 0, y: 0, z: 11.3962002, w: -5.07395124}
        tangentMode: 5
      - time: .233333334
        value: {x: 0, y: 0, z: -.207914114, w: -.978147089}
        inSlope: {x: 0, y: 0, z: 12.2020998, w: -2.59366941}
        outSlope: {x: 0, y: 0, z: 12.2020998, w: -2.59366941}
        tangentMode: 370018328
      - time: .25
        value: {x: 0, y: 0, z: -2.47160847e-06, w: -1}
        inSlope: {x: 0, y: 0, z: 12.4747038, w: -2.92062759e-05}
        outSlope: {x: 0, y: 0, z: 12.4747038, w: -2.92062759e-05}
        tangentMode: 0
      - time: .266666681
        value: {x: 0, y: 0, z: .20790951, w: -.978148043}
        inSlope: {x: 0, y: 0, z: 12.2021084, w: 2.59360981}
        outSlope: {x: 0, y: 0, z: 12.2021084, w: 2.59360981}
        tangentMode: 0
      - time: .283333361
        value: {x: 0, y: 0, z: .406734824, w: -.913546264}
        inSlope: {x: 0, y: 0, z: 11.3962269, w: 5.07390022}
        outSlope: {x: 0, y: 0, z: 11.3962269, w: 5.07390022}
        tangentMode: -192
      - time: .300000042
        value: {x: 0, y: 0, z: .587784052, w: -.809017897}
        inSlope: {x: 0, y: 0, z: 10.0922661, w: 7.33243656}
        outSlope: {x: 0, y: 0, z: 10.0922661, w: 7.33243656}
        tangentMode: 1065353217
      - time: .316666722
        value: {x: 0, y: 0, z: .743143976, w: -.669131517}
        inSlope: {x: 0, y: 0, z: 8.34721851, w: 9.27050209}
        outSlope: {x: 0, y: 0, z: 8.34721851, w: 9.27050209}
        tangentMode: 0
      - time: .333333403
        value: {x: 0, y: 0, z: .866024911, w: -.500000894}
        inSlope: {x: 0, y: 0, z: 6.23736477, w: 10.8034048}
        outSlope: {x: 0, y: 0, z: 6.23736477, w: 10.8034048}
        tangentMode: 52
      - time: .350000083
        value: {x: 0, y: 0, z: .951056302, w: -.309017718}
        inSlope: {x: 0, y: 0, z: 3.85490513, w: 11.8641577}
        outSlope: {x: 0, y: 0, z: 3.85490513, w: 11.8641577}
        tangentMode: 1
      - time: .366666764
        value: {x: 0, y: 0, z: .994521856, w: -.104528628}
        inSlope: {x: 0, y: 0, z: 1.30396914, w: 12.4063568}
        outSlope: {x: 0, y: 0, z: 1.30396914, w: 12.4063568}
        tangentMode: 32
      - time: .383333445
        value: {x: 0, y: 0, z: .994521976, w: .104527831}
        inSlope: {x: 0, y: 0, z: -1.30395842, w: 12.4063549}
        outSlope: {x: 0, y: 0, z: -1.30395842, w: 12.4063549}
        tangentMode: 0
      - time: .400000125
        value: {x: 0, y: 0, z: .95105654, w: .309016854}
        inSlope: {x: 0, y: 0, z: -3.85489082, w: 11.864151}
        outSlope: {x: 0, y: 0, z: -3.85489082, w: 11.864151}
        tangentMode: 1065353216
      - time: .416666806
        value: {x: 0, y: 0, z: .866025507, w: .499999881}
        inSlope: {x: 0, y: 0, z: -6.23735571, w: 10.8034134}
        outSlope: {x: 0, y: 0, z: -6.23735571, w: 10.8034134}
        tangentMode: 273853691
      - time: .433333486
        value: {x: 0, y: 0, z: .743144512, w: .669130921}
        inSlope: {x: 0, y: 0, z: -8.34721184, w: 9.27051353}
        outSlope: {x: 0, y: 0, z: -8.34721184, w: 9.27051353}
        tangentMode: -184
      - time: .450000167
        value: {x: 0, y: 0, z: .587784886, w: .809017241}
        inSlope: {x: 0, y: 0, z: -10.0922565, w: 7.33244324}
        outSlope: {x: 0, y: 0, z: -10.0922565, w: 7.33244324}
        tangentMode: 1
      - time: .466666847
        value: {x: 0, y: 0, z: .406735688, w: .913545907}
        inSlope: {x: 0, y: 0, z: -11.3962173, w: 5.07391262}
        outSlope: {x: 0, y: 0, z: -11.3962173, w: 5.07391262}
        tangentMode: 0
      - time: .483333528
        value: {x: 0, y: 0, z: .207910672, w: .978147805}
        inSlope: {x: 0, y: 0, z: -12.2021389, w: 2.59362888}
        outSlope: {x: 0, y: 0, z: -12.2021389, w: 2.59362888}
        tangentMode: 52
      - time: .5
        value: {x: 0, y: 0, z: 0, w: 1}
        inSlope: {x: 0, y: 0, z: -12.4747858, w: 1.31114697}
        outSlope: {x: 0, y: 0, z: -12.4747858, w: 1.31114697}
        tangentMode: 1
      m_PreInfinity: 2
      m_PostInfinity: 2
    path: 
  m_CompressedRotationCurves: []
  m_PositionCurves:
  - curve:
      serializedVersion: 2
      m_Curve:
      - time: 0
        value: {x: .215000004, y: -2.1500001, z: 0}
        inSlope: {x: 0, y: 0, z: 0}
        outSlope: {x: 0, y: 0, z: 0}
        tangentMode: 0
      - time: .5
        value: {x: .215000004, y: -2.1500001, z: 0}
        inSlope: {x: 0, y: 0, z: 0}
        outSlope: {x: 0, y: 0, z: 0}
        tangentMode: 0
      m_PreInfinity: 2
      m_PostInfinity: 2
    path: 
  m_ScaleCurves:
  - curve:
      serializedVersion: 2
      m_Curve:
      - time: 0
        value: {x: 1, y: 1, z: 1}
        inSlope: {x: -2, y: -2, z: -2}
        outSlope: {x: -2, y: -2, z: -2}
        tangentMode: 0
      - time: .5
        value: {x: 0, y: 0, z: 0}
        inSlope: {x: -2, y: -2, z: -2}
        outSlope: {x: -2, y: -2, z: -2}
        tangentMode: 125632512
      m_PreInfinity: 2
      m_PostInfinity: 2
    path: 
  m_FloatCurves: []
  m_PPtrCurves: []
  m_SampleRate: 60
  m_WrapMode: 0
  m_Bounds:
    m_Center: {x: 0, y: 0, z: 0}
    m_Extent: {x: 0, y: 0, z: 0}
  m_AnimationClipSettings:
    serializedVersion: 2
    m_StartTime: 0
    m_StopTime: .5
    m_OrientationOffsetY: 0
    m_Level: 0
    m_CycleOffset: 0
    m_LoopTime: 1
    m_LoopBlend: 0
    m_LoopBlendOrientation: 0
    m_LoopBlendPositionY: 0
    m_LoopBlendPositionXZ: 0
    m_KeepOriginalOrientation: 0
    m_KeepOriginalPositionY: 1
    m_KeepOriginalPositionXZ: 0
    m_HeightFromFeet: 0
    m_Mirror: 0
  m_EditorCurves:
  - curve:
      serializedVersion: 2
      m_Curve:
      - time: 0
        value: .215000004
        inSlope: 0
        outSlope: 0
        tangentMode: 10
      - time: .5
        value: .215000004
        inSlope: 0
        outSlope: 0
        tangentMode: 10
      m_PreInfinity: 2
      m_PostInfinity: 2
    attribute: m_LocalPosition.x
    path: 
    classID: 4
    script: {fileID: 0}
  - curve:
      serializedVersion: 2
      m_Curve:
      - time: 0
        value: -2.1500001
        inSlope: 0
        outSlope: 0
        tangentMode: 10
      - time: .5
        value: -2.1500001
        inSlope: 0
        outSlope: 0
        tangentMode: 10
      m_PreInfinity: 2
      m_PostInfinity: 2
    attribute: m_LocalPosition.y
    path: 
    classID: 4
    script: {fileID: 0}
  - curve:
      serializedVersion: 2
      m_Curve:
      - time: 0
        value: 0
        inSlope: 0
        outSlope: 0
        tangentMode: 10
      - time: .5
        value: 0
        inSlope: 0
        outSlope: 0
        tangentMode: 10
      m_PreInfinity: 2
      m_PostInfinity: 2
    attribute: m_LocalPosition.z
    path: 
    classID: 4
    script: {fileID: 0}
  - curve:
      serializedVersion: 2
      m_Curve:
      - time: 0
        value: 1
        inSlope: -2
        outSlope: -2
        tangentMode: 10
      - time: .5
        value: 0
        inSlope: -2
        outSlope: -2
        tangentMode: 10
      m_PreInfinity: 2
      m_PostInfinity: 2
    attribute: m_LocalScale.z
    path: 
    classID: 4
    script: {fileID: 0}
  - curve:
      serializedVersion: 2
      m_Curve:
      - time: 0
        value: 1
        inSlope: -2
        outSlope: -2
        tangentMode: 10
      - time: .5
        value: 0
        inSlope: -2
        outSlope: -2
        tangentMode: 10
      m_PreInfinity: 2
      m_PostInfinity: 2
    attribute: m_LocalScale.y
    path: 
    classID: 4
    script: {fileID: 0}
  - curve:
      serializedVersion: 2
      m_Curve:
      - time: 0
        value: 1
        inSlope: -2
        outSlope: -2
        tangentMode: 10
      - time: .5
        value: 0
        inSlope: -2
        outSlope: -2
        tangentMode: 10
      m_PreInfinity: 2
      m_PostInfinity: 2
    attribute: m_LocalScale.x
    path: 
    classID: 4
    script: {fileID: 0}
  - curve:
      serializedVersion: 2
      m_Curve:
      - time: 0
        value: 0
        inSlope: 0
        outSlope: 0
        tangentMode: 0
      - time: .0166666675
        value: 0
        inSlope: 0
        outSlope: 0
        tangentMode: 0
      - time: .0333333351
        value: 0
        inSlope: 0
        outSlope: 0
        tangentMode: 0
      - time: .0500000045
        value: 0
        inSlope: 0
        outSlope: 0
        tangentMode: 0
      - time: .0666666701
        value: 0
        inSlope: 0
        outSlope: 0
        tangentMode: 0
      - time: .0833333358
        value: 0
        inSlope: 0
        outSlope: 0
        tangentMode: 0
      - time: .100000001
        value: 0
        inSlope: 0
        outSlope: 0
        tangentMode: 0
      - time: .116666667
        value: 0
        inSlope: 0
        outSlope: 0
        tangentMode: 0
      - time: .13333334
        value: 0
        inSlope: 0
        outSlope: 0
        tangentMode: 0
      - time: .150000006
        value: 0
        inSlope: 0
        outSlope: 0
        tangentMode: 0
      - time: .166666672
        value: 0
        inSlope: 0
        outSlope: 0
        tangentMode: 0
      - time: .183333337
        value: 0
        inSlope: 0
        outSlope: 0
        tangentMode: 0
      - time: .200000003
        value: 0
        inSlope: 0
        outSlope: 0
        tangentMode: 0
      - time: .216666669
        value: 0
        inSlope: 0
        outSlope: 0
        tangentMode: 0
      - time: .233333334
        value: 0
        inSlope: 0
        outSlope: 0
        tangentMode: 0
      - time: .25
        value: 0
        inSlope: 0
        outSlope: 0
        tangentMode: 0
      - time: .266666681
        value: 0
        inSlope: 0
        outSlope: 0
        tangentMode: 0
      - time: .283333361
        value: 0
        inSlope: 0
        outSlope: 0
        tangentMode: 0
      - time: .300000042
        value: 0
        inSlope: 0
        outSlope: 0
        tangentMode: 0
      - time: .316666722
        value: 0
        inSlope: 0
        outSlope: 0
        tangentMode: 0
      - time: .333333403
        value: 0
        inSlope: 0
        outSlope: 0
        tangentMode: 0
      - time: .350000083
        value: 0
        inSlope: 0
        outSlope: 0
        tangentMode: 0
      - time: .366666764
        value: 0
        inSlope: 0
        outSlope: 0
        tangentMode: 0
      - time: .383333445
        value: 0
        inSlope: 0
        outSlope: 0
        tangentMode: 0
      - time: .400000125
        value: 0
        inSlope: 0
        outSlope: 0
        tangentMode: 0
      - time: .416666806
        value: 0
        inSlope: 0
        outSlope: 0
        tangentMode: 0
      - time: .433333486
        value: 0
        inSlope: 0
        outSlope: 0
        tangentMode: 0
      - time: .450000167
        value: 0
        inSlope: 0
        outSlope: 0
        tangentMode: 0
      - time: .466666847
        value: 0
        inSlope: 0
        outSlope: 0
        tangentMode: 0
      - time: .483333528
        value: 0
        inSlope: 0
        outSlope: 0
        tangentMode: 0
      - time: .5
        value: 0
        inSlope: 0
        outSlope: 0
        tangentMode: 0
      m_PreInfinity: 2
      m_PostInfinity: 2
    attribute: m_LocalRotation.x
    path: 
    classID: 4
    script: {fileID: 0}
  - curve:
      serializedVersion: 2
      m_Curve:
      - time: 0
        value: 0
        inSlope: 0
        outSlope: 0
        tangentMode: 0
      - time: .0166666675
        value: 0
        inSlope: 0
        outSlope: 0
        tangentMode: 0
      - time: .0333333351
        value: 0
        inSlope: 0
        outSlope: 0
        tangentMode: 0
      - time: .0500000045
        value: 0
        inSlope: 0
        outSlope: 0
        tangentMode: 0
      - time: .0666666701
        value: 0
        inSlope: 0
        outSlope: 0
        tangentMode: 0
      - time: .0833333358
        value: 0
        inSlope: 0
        outSlope: 0
        tangentMode: 0
      - time: .100000001
        value: 0
        inSlope: 0
        outSlope: 0
        tangentMode: 0
      - time: .116666667
        value: 0
        inSlope: 0
        outSlope: 0
        tangentMode: 0
      - time: .13333334
        value: 0
        inSlope: 0
        outSlope: 0
        tangentMode: 0
      - time: .150000006
        value: 0
        inSlope: 0
        outSlope: 0
        tangentMode: 0
      - time: .166666672
        value: 0
        inSlope: 0
        outSlope: 0
        tangentMode: 0
      - time: .183333337
        value: 0
        inSlope: 0
        outSlope: 0
        tangentMode: 0
      - time: .200000003
        value: 0
        inSlope: 0
        outSlope: 0
        tangentMode: 0
      - time: .216666669
        value: 0
        inSlope: 0
        outSlope: 0
        tangentMode: 0
      - time: .233333334
        value: 0
        inSlope: 0
        outSlope: 0
        tangentMode: 0
      - time: .25
        value: 0
        inSlope: 0
        outSlope: 0
        tangentMode: 0
      - time: .266666681
        value: 0
        inSlope: 0
        outSlope: 0
        tangentMode: 0
      - time: .283333361
        value: 0
        inSlope: 0
        outSlope: 0
        tangentMode: 0
      - time: .300000042
        value: 0
        inSlope: 0
        outSlope: 0
        tangentMode: 0
      - time: .316666722
        value: 0
        inSlope: 0
        outSlope: 0
        tangentMode: 0
      - time: .333333403
        value: 0
        inSlope: 0
        outSlope: 0
        tangentMode: 0
      - time: .350000083
        value: 0
        inSlope: 0
        outSlope: 0
        tangentMode: 0
      - time: .366666764
        value: 0
        inSlope: 0
        outSlope: 0
        tangentMode: 0
      - time: .383333445
        value: 0
        inSlope: 0
        outSlope: 0
        tangentMode: 0
      - time: .400000125
        value: 0
        inSlope: 0
        outSlope: 0
        tangentMode: 0
      - time: .416666806
        value: 0
        inSlope: 0
        outSlope: 0
        tangentMode: 0
      - time: .433333486
        value: 0
        inSlope: 0
        outSlope: 0
        tangentMode: 0
      - time: .450000167
        value: 0
        inSlope: 0
        outSlope: 0
        tangentMode: 0
      - time: .466666847
        value: 0
        inSlope: 0
        outSlope: 0
        tangentMode: 0
      - time: .483333528
        value: 0
        inSlope: 0
        outSlope: 0
        tangentMode: 0
      - time: .5
        value: 0
        inSlope: 0
        outSlope: 0
        tangentMode: 0
      m_PreInfinity: 2
      m_PostInfinity: 2
    attribute: m_LocalRotation.y
    path: 
    classID: 4
    script: {fileID: 0}
  - curve:
      serializedVersion: 2
      m_Curve:
      - time: 0
        value: 4.46637978e-06
        inSlope: -12.474721
        outSlope: -12.474721
        tangentMode: 0
      - time: .0166666675
        value: -.207907557
        inSlope: -12.2021236
        outSlope: -12.2021236
        tangentMode: 0
      - time: .0333333351
        value: -.406733006
        inSlope: -11.3962383
        outSlope: -11.3962383
        tangentMode: 0
      - time: .0500000045
        value: -.587782204
        inSlope: -10.0922756
        outSlope: -10.0922756
        tangentMode: 0
      - time: .0666666701
        value: -.743142188
        inSlope: -8.34724045
        outSlope: -8.34724045
        tangentMode: 0
      - time: .0833333358
        value: -.86602354
        inSlope: -6.23739862
        outSlope: -6.23739862
        tangentMode: 0
      - time: .100000001
        value: -.951055467
        inSlope: -3.85494089
        outSlope: -3.85494089
        tangentMode: 0
      - time: .116666667
        value: -.994521558
        inSlope: -1.30400252
        outSlope: -1.30400252
        tangentMode: 0
      - time: .13333334
        value: -.994522214
        inSlope: 1.30392206
        outSlope: 1.30392206
        tangentMode: 0
      - time: .150000006
        value: -.951057494
        inSlope: 3.85486031
        outSlope: 3.85486031
        tangentMode: 0
      - time: .166666672
        value: -.866026878
        inSlope: 6.23732567
        outSlope: 6.23732567
        tangentMode: 0
      - time: .183333337
        value: -.743146658
        inSlope: 8.34718323
        outSlope: 8.34718323
        tangentMode: 0
      - time: .200000003
        value: -.587787449
        inSlope: 10.092227
        outSlope: 10.092227
        tangentMode: 0
      - time: .216666669
        value: -.406739116
        inSlope: 11.3962002
        outSlope: 11.3962002
        tangentMode: 0
      - time: .233333334
        value: -.207914114
        inSlope: 12.2020998
        outSlope: 12.2020998
        tangentMode: 0
      - time: .25
        value: -2.47160847e-06
        inSlope: 12.4747038
        outSlope: 12.4747038
        tangentMode: 0
      - time: .266666681
        value: .20790951
        inSlope: 12.2021084
        outSlope: 12.2021084
        tangentMode: 0
      - time: .283333361
        value: .406734824
        inSlope: 11.3962269
        outSlope: 11.3962269
        tangentMode: 0
      - time: .300000042
        value: .587784052
        inSlope: 10.0922661
        outSlope: 10.0922661
        tangentMode: 0
      - time: .316666722
        value: .743143976
        inSlope: 8.34721851
        outSlope: 8.34721851
        tangentMode: 0
      - time: .333333403
        value: .866024911
        inSlope: 6.23736477
        outSlope: 6.23736477
        tangentMode: 0
      - time: .350000083
        value: .951056302
        inSlope: 3.85490513
        outSlope: 3.85490513
        tangentMode: 0
      - time: .366666764
        value: .994521856
        inSlope: 1.30396914
        outSlope: 1.30396914
        tangentMode: 0
      - time: .383333445
        value: .994521976
        inSlope: -1.30395842
        outSlope: -1.30395842
        tangentMode: 0
      - time: .400000125
        value: .95105654
        inSlope: -3.85489082
        outSlope: -3.85489082
        tangentMode: 0
      - time: .416666806
        value: .866025507
        inSlope: -6.23735571
        outSlope: -6.23735571
        tangentMode: 0
      - time: .433333486
        value: .743144512
        inSlope: -8.34721184
        outSlope: -8.34721184
        tangentMode: 0
      - time: .450000167
        value: .587784886
        inSlope: -10.0922565
        outSlope: -10.0922565
        tangentMode: 0
      - time: .466666847
        value: .406735688
        inSlope: -11.3962173
        outSlope: -11.3962173
        tangentMode: 0
      - time: .483333528
        value: .207910672
        inSlope: -12.2021389
        outSlope: -12.2021389
        tangentMode: 0
      - time: .5
        value: 0
        inSlope: -12.4747858
        outSlope: -12.4747858
        tangentMode: 0
      m_PreInfinity: 2
      m_PostInfinity: 2
    attribute: m_LocalRotation.z
    path: 
    classID: 4
    script: {fileID: 0}
  - curve:
      serializedVersion: 2
      m_Curve:
      - time: 0
        value: 1
        inSlope: -1.31109226
        outSlope: -1.31109226
        tangentMode: 0
      - time: .0166666675
        value: .97814846
        inSlope: -2.59358692
        outSlope: -2.59358692
        tangentMode: 0
      - time: .0333333351
        value: .913547099
        inSlope: -5.07387686
        outSlope: -5.07387686
        tangentMode: 0
      - time: .0500000045
        value: .809019208
        inSlope: -7.33240652
        outSlope: -7.33240652
        tangentMode: 0
      - time: .0666666701
        value: .669133544
        inSlope: -9.27048111
        outSlope: -9.27048111
        tangentMode: 0
      - time: .0833333358
        value: .500003219
        inSlope: -10.8033981
        outSlope: -10.8033981
        tangentMode: 0
      - time: .100000001
        value: .309020311
        inSlope: -11.8641472
        outSlope: -11.8641472
        tangentMode: 0
      - time: .116666667
        value: .104531676
        inSlope: -12.4063721
        outSlope: -12.4063721
        tangentMode: 0
      - time: .13333334
        value: -.104525492
        inSlope: -12.4063663
        outSlope: -12.4063663
        tangentMode: 0
      - time: .150000006
        value: -.309013933
        inSlope: -11.8641586
        outSlope: -11.8641586
        tangentMode: 0
      - time: .166666672
        value: -.499997407
        inSlope: -10.8034401
        outSlope: -10.8034401
        tangentMode: 0
      - time: .183333337
        value: -.669128597
        inSlope: -9.27054024
        outSlope: -9.27054024
        tangentMode: 0
      - time: .200000003
        value: -.809015393
        inSlope: -7.33247328
        outSlope: -7.33247328
        tangentMode: 0
      - time: .216666669
        value: -.913544357
        inSlope: -5.07395124
        outSlope: -5.07395124
        tangentMode: 0
      - time: .233333334
        value: -.978147089
        inSlope: -2.59366941
        outSlope: -2.59366941
        tangentMode: 0
      - time: .25
        value: -1
        inSlope: -2.92062759e-05
        outSlope: -2.92062759e-05
        tangentMode: 0
      - time: .266666681
        value: -.978148043
        inSlope: 2.59360981
        outSlope: 2.59360981
        tangentMode: 0
      - time: .283333361
        value: -.913546264
        inSlope: 5.07390022
        outSlope: 5.07390022
        tangentMode: 0
      - time: .300000042
        value: -.809017897
        inSlope: 7.33243656
        outSlope: 7.33243656
        tangentMode: 0
      - time: .316666722
        value: -.669131517
        inSlope: 9.27050209
        outSlope: 9.27050209
        tangentMode: 0
      - time: .333333403
        value: -.500000894
        inSlope: 10.8034048
        outSlope: 10.8034048
        tangentMode: 0
      - time: .350000083
        value: -.309017718
        inSlope: 11.8641577
        outSlope: 11.8641577
        tangentMode: 0
      - time: .366666764
        value: -.104528628
        inSlope: 12.4063568
        outSlope: 12.4063568
        tangentMode: 0
      - time: .383333445
        value: .104527831
        inSlope: 12.4063549
        outSlope: 12.4063549
        tangentMode: 0
      - time: .400000125
        value: .309016854
        inSlope: 11.864151
        outSlope: 11.864151
        tangentMode: 0
      - time: .416666806
        value: .499999881
        inSlope: 10.8034134
        outSlope: 10.8034134
        tangentMode: 0
      - time: .433333486
        value: .669130921
        inSlope: 9.27051353
        outSlope: 9.27051353
        tangentMode: 0
      - time: .450000167
        value: .809017241
        inSlope: 7.33244324
        outSlope: 7.33244324
        tangentMode: 0
      - time: .466666847
        value: .913545907
        inSlope: 5.07391262
        outSlope: 5.07391262
        tangentMode: 0
      - time: .483333528
        value: .978147805
        inSlope: 2.59362888
        outSlope: 2.59362888
        tangentMode: 0
      - time: .5
        value: 1
        inSlope: 1.31114697
        outSlope: 1.31114697
        tangentMode: 0
      m_PreInfinity: 2
      m_PostInfinity: 2
    attribute: m_LocalRotation.w
    path: 
    classID: 4
    script: {fileID: 0}
  m_EulerEditorCurves:
  - curve:
      serializedVersion: 2
      m_Curve:
      - time: 0
        value: 0
        inSlope: 0
        outSlope: 0
        tangentMode: 10
      - time: .5
        value: 0
        inSlope: 0
        outSlope: 0
        tangentMode: 10
      m_PreInfinity: 2
      m_PostInfinity: 2
    attribute: localEulerAnglesBaked.x
    path: 
    classID: 4
    script: {fileID: 0}
  - curve:
      serializedVersion: 2
      m_Curve:
      - time: 0
        value: 0
        inSlope: 0
        outSlope: 0
        tangentMode: 10
      - time: .5
        value: 0
        inSlope: 0
        outSlope: 0
        tangentMode: 10
      m_PreInfinity: 2
      m_PostInfinity: 2
    attribute: localEulerAnglesBaked.y
    path: 
    classID: 4
    script: {fileID: 0}
  - curve:
      serializedVersion: 2
      m_Curve:
      - time: 0
        value: 720.000427
        inSlope: -1440.00085
        outSlope: -1440.00085
        tangentMode: 10
      - time: .5
        value: 0
        inSlope: -1440.00085
        outSlope: -1440.00085
        tangentMode: 10
      m_PreInfinity: 2
      m_PostInfinity: 2
    attribute: localEulerAnglesBaked.z
    path: 
    classID: 4
    script: {fileID: 0}
  m_Events: []
